{
  " ": "([]+{})[!![]+!![]+!![]+!![]+!![]+!![]+!![]]",
  "a": "((![])+[])[+!![]]",
  "b": null,
  "c": null,
  "d": null,
  "e": "((!![])+[])[+!![]+!![]+!![]]",
  "f": "((![])+[])[+![]]",
  "g": null,
  "h": null,
  "i": "([][![]]+[])[+!![]+!![]+!![]+!![]+!![]]",
  "j": null,
  "k": null,
  "l": "((![])+[])[+!![]+!![]]",
  "m": null,
  "n": "(([][!![]])+[]+{})[+!![]]",
  "o": "([]+{})[+(!![])]",
  "p": null,
  "q": null,
  "r": "((!![])+[])[+!![]]",
  "s": null,
  "t": null,
  "w": null,
  "u": "((!![])+[])[+!![]+!![]]",
  "v": "([][([]+{})[!![]+!![]+!![]+!![]+!![]] + ([]+{})[+(!![])] + (([][!![]])+[]+{})[+!![]] + ([]+!{})[+!![]+!![]+!![]] + ((!![])+[])[+![]] + ((!![])+[])[+!![]] + ((!![])+[])[+!![]+!![]] + ([]+{})[!![]+!![]+!![]+!![]+!![]] + ((!![])+[])[+![]] + ([]+{})[+(!![])] + ((!![])+[])[+!![]]]+[])[+!![]+!![]+!![]+!![]+!![]+!![]+!![]+!![]+!![]+!![]+!![]+!![]+!![]+!![]+!![]+!!{}+!![]+!![]+!![]+!![]+!![]+!![]+!![]+!![]+!![]+!![]+!![]+!![]]",
  "x": null,
  "y": null,
  "z": null
}

